01 What you need to know about dplyr 1.0.0
…
across() is a selecting function. We can identify which
functions to apply, and then select the columns they will be applied to.
This is a substitute for mutate_if.

dplyr::storms %>% 
  mutate(across(where(is_character), as_factor)) %>% 
  select(name, status)

# A tibble: 11,859 × 2
   name  status             
   <fct> <fct>              
 1 Amy   tropical depression
 2 Amy   tropical depression
 3 Amy   tropical depression
 4 Amy   tropical depression
 5 Amy   tropical depression
 6 Amy   tropical depression
 7 Amy   tropical depression
 8 Amy   tropical depression
 9 Amy   tropical storm     
10 Amy   tropical storm     
# … with 11,849 more rows
…
