03 dplyr 1.0.0 by Tim Mastny
…
column_name = func(column_name)

Using across

dplyr::across is a way to avoid doing this column name
repetition. It keeps the same column name after applying the
function.

## Example using across
mtcars_test %>% 
  select(car, vs, am) %>%
  mutate(across(c(vs, am), as.factor))

# A tibble: 32 × 3
   car               vs    am   
   <chr>             <fct> <fct>
 1 Mazda RX4         0     1    
 2 Mazda RX4 Wag     0     1    
 3 Datsun 710        1     1    
 4 Hornet 4 Drive    1     0    
 5 Hornet Sportabout 0     0    
 6 Valiant           1     0    
 7 Duster 360        0     0    
 8 Merc 240D         1     0    
 9 Merc 230          1     0    
10 Merc 280          1     0    
# … with 22 more rows
…
